Análise Exploratória sobre as reclamações do ReclameAqui e experimento humano do nível de insatisfação
…
Da nossa amostra, podemos ver que boa parte das reclamações não possuem nenhum dos dois pontos. Mesmo assim, existe uma quantidade considerável que usou um ou dois pontos. Para as reclamações que possuem uma quantidade maior de pontos, seria interessante ver de que forma essa quantidade influencia na nota de insatisfação, mas, como não desejamos nos aprofundar nisso agora, deixaremos para um próximo momento.

2. Explorando as avaliações

avaliacoes <- avaliacoes %>% 
              select(avaliador = `Matricula`, 
                      id = `ID da reclamação`, 
                       insatisfacao = `Grau de insatisfação`)

Para garantir que não existem valores não permitidos na avaliação, iremos filtrar qualquer avaliação que não esteja entre 1 e 5 de grau de insatisfação

avaliacoes %>% 
  filter((id %in% 1:5 ))

## # A tibble: 27 x 3
##    avaliador    id insatisfacao
##        <int> <int>        <int>
##  1 113110007     2            4
##  2 113111448     2            4
##  3 113210425     5            3
##  4 114110439     3            2
##  5 114110485     3            2
##  6 114111357     2            5
##  7 114111370     1            5
##  8 114111371     5            5
##  9 114210164     2            5
## 10 114210300     3            2
## # ... with 17 more rows
…
